6/3/e16388_cpu_wavedata.vcd
$date
	Sun Jun 21 19:39:53 2020
$end
$version
	Icarus Verilog
$end
$timescale
	100ps
$end
$scope module cpu_tb $end
$var wire 1 ! busywait $end
$var wire 32 " mem_writedata [31:0] $end
$var wire 1 # mem_write $end
$var wire 32 $ mem_readdata [31:0] $end
$var wire 1 % mem_read $end
$var wire 1 & mem_busywait $end
$var wire 6 ' mem_address [5:0] $end
$var wire 128 ( ins_readdata [127:0] $end
$var wire 1 ) ins_read $end
$var wire 1 * ins_c_busywait $end
$var wire 1 + ins_busywait $end
$var wire 6 , ins_address [5:0] $end
$var wire 1 - data_write $end
$var wire 1 . data_read $end
$var wire 1 / data_busywait $end
$var wire 8 0 WRITEDATA [7:0] $end
$var wire 8 1 READDATA [7:0] $end
$var wire 32 2 PC [31:0] $end
$var wire 32 3 INSTRUCTION [31:0] $end
$var wire 8 4 ADDRESS [7:0] $end
$var reg 1 5 CLK $end
$var reg 1 6 RESET $end
$var integer 32 7 count [31:0] $end
$scope module datacache $end
$var wire 1 5 clock $end
$var wire 1 8 hitstatus $end
$var wire 1 6 reset $end
$var wire 32 9 stored_block [31:0] $end
$var wire 3 : stored_tag [2:0] $end
$var wire 1 - write $end
$var wire 1 ; tag_results $end
$var wire 1 < stored_valid $end
$var wire 1 = stored_dirty $end
$var wire 3 > req_tag [2:0] $end
$var wire 2 ? req_offset [1:0] $end
$var wire 3 @ req_index [2:0] $end
$var wire 1 . read $end
$var wire 32 A mem_readdata [31:0] $end
$var wire 1 & mem_busywait $end
$var wire 8 B WRITEDATA [7:0] $end
$var wire 8 C READDATA [7:0] $end
$var wire 8 D ADDRESS [7:0] $end
$var reg 1 / busywait $end
$var reg 8 E dirty [7:0] $end
$var reg 6 F mem_address [5:0] $end
$var reg 1 % mem_read $end
$var reg 1 # mem_write $end
$var reg 32 G mem_writedata [31:0] $end
$var reg 3 H next_state [2:0] $end
$var reg 3 I state [2:0] $end
$var reg 8 J valid [7:0] $end
$var integer 32 K i [31:0] $end
$scope module tagmatch $end
$var wire 3 L current_tag [2:0] $end
$var wire 1 M r1 $end
$var wire 1 N r2 $end
$var wire 1 O r3 $end
$var wire 3 P stored_tag [2:0] $end
$var wire 1 Q t $end
$var reg 1 ; results $end
$upscope $end
$upscope $end
$scope module datamemory $end
$var wire 6 R address [5:0] $end
$var wire 1 5 clock $end
$var wire 1 % read $end
$var wire 1 6 reset $end
$var wire 1 # write $end
$var wire 32 S writedata [31:0] $end
$var reg 1 & busywait $end
$var reg 1 T readaccess $end
$var reg 32 U readdata [31:0] $end
$var reg 1 V writeaccess $end
$var integer 32 W i [31:0] $end
$upscope $end
$scope module insmemory $end
$var wire 1 5 clock $end
$var wire 1 ) read $end
$var wire 6 X address [5:0] $end
$var reg 1 + busywait $end
$var reg 1 Y readaccess $end
$var reg 128 Z readdata [127:0] $end
$upscope $end
$scope module instructioncache $end
$var wire 10 [ ADDRESS [9:0] $end
$var wire 1 5 clock $end
$var wire 1 \ hitstatus $end
$var wire 1 + ins_busywait $end
$var wire 128 ] ins_readdata [127:0] $end
$var wire 1 6 reset $end
$var wire 3 ^ stored_tag [2:0] $end
$var wire 1 _ tag_results $end
$var wire 1 ` stored_valid $end
$var wire 129 a stored_block [128:0] $end
$var wire 3 b req_tag [2:0] $end
$var wire 2 c req_offset [1:0] $end
$var wire 3 d req_index [2:0] $end
$var wire 32 e instruction [31:0] $end
$var reg 32 f READDATA [31:0] $end
$var reg 1 * busywait $end
$var reg 6 g ins_address [5:0] $end
$var reg 1 ) ins_read $end
$var reg 2 h next_state [1:0] $end
$var reg 2 i state [1:0] $end
$var reg 8 j valid [7:0] $end
$var integer 32 k i [31:0] $end
$scope module tagmatch $end
$var wire 3 l current_tag [2:0] $end
$var wire 1 m r1 $end
$var wire 1 n r2 $end
$var wire 1 o r3 $end
$var wire 3 p stored_tag [2:0] $end
$var wire 1 q t $end
$var reg 1 _ results $end
$upscope $end
$upscope $end
$scope module mycpu $end
$var wire 1 5 CLK $end
$var wire 32 r INSTRUCTION [31:0] $end
$var wire 8 s READDATA [7:0] $end
$var wire 1 6 RESET $end
$var wire 1 ! busywait $end
$var wire 1 t instruction_select $end
$var wire 1 u select_bne $end
$var wire 1 v select_branch $end
$var wire 1 w zero_inverse $end
$var wire 1 x zero $end
$var wire 32 y target [31:0] $end
$var wire 8 z reg_in [7:0] $end
$var wire 32 { pc [31:0] $end
$var wire 32 | new_val [31:0] $end
$var wire 8 } mux2_result [7:0] $end
$var wire 8 ~ mux1_result [7:0] $end
$var wire 8 !" minus_val [7:0] $end
$var wire 1 - mem_write $end
$var wire 1 . mem_read $end
$var wire 1 "" jump $end
$var wire 32 #" extended_val [31:0] $end
$var wire 1 $" branch $end
$var wire 1 %" b_notequal $end
$var wire 1 &" WRITEENABLE $end
$var wire 8 '" REGOUT2 [7:0] $end
$var wire 8 (" REGOUT1 [7:0] $end
$var wire 1 )" MUX2 $end
$var wire 1 *" MUX1 $end
$var wire 8 +" ALURESULT [7:0] $end
$var wire 4 ," ALUOP [3:0] $end
$var reg 32 -" new_target [31:0] $end
$var reg 32 ." temp [31:0] $end
$scope module alu_system $end
$var wire 8 /" ANDOP [7:0] $end
$var wire 8 0" MOV [7:0] $end
$var wire 8 1" OROP [7:0] $end
$var wire 1 x zero $end
$var wire 8 2" multiply_results [7:0] $end
$var wire 8 3" SUM [7:0] $end
$var wire 4 4" SELECT [3:0] $end
$var wire 8 5" DATA2 [7:0] $end
$var wire 8 6" DATA1 [7:0] $end
$var reg 8 7" RESULT [7:0] $end
$scope module fast_multiplication $end
$var wire 8 8" result7 [7:0] $end
$var wire 8 9" result6 [7:0] $end
$var wire 8 :" result5 [7:0] $end
$var wire 8 ;" result4 [7:0] $end
$var wire 8 <" result3 [7:0] $end
$var wire 8 =" result2 [7:0] $end
$var wire 8 >" result1 [7:0] $end
$var wire 8 ?" in2 [7:0] $end
$var wire 8 @" in1 [7:0] $end
$var wire 1 A" c7 $end
$var wire 1 B" c6 $end
$var wire 1 C" c5 $end
$var wire 1 D" c4 $end
$var wire 1 E" c3 $end
$var wire 1 F" c2 $end
$var wire 1 G" c1 $end
$var reg 8 H" out [7:0] $end
$scope module adder1 $end
$var wire 1 I" a1 $end
$var wire 1 J" a2 $end
$var wire 1 K" a3 $end
$var wire 1 L" a4 $end
$var wire 1 M" a5 $end
$var wire 1 N" a6 $end
$var wire 1 O" a7 $end
$var wire 1 P" a8 $end
$var wire 1 Q" b1 $end
$var wire 1 R" b2 $end
$var wire 1 S" b3 $end
$var wire 1 T" b4 $end
$var wire 1 U" b5 $end
$var wire 1 V" b6 $end
$var wire 1 W" b7 $end
$var wire 1 X" b8 $end
$var reg 1 G" cout $end
$var reg 8 Y" operand1 [7:0] $end
$var reg 8 Z" operand2 [7:0] $end
$var reg 8 [" result [7:0] $end
$var reg 9 \" temp [8:0] $end
$upscope $end
$scope module adder2 $end
$var wire 1 G" a1 $end
$var wire 1 ]" a2 $end
$var wire 1 ^" a3 $end
$var wire 1 _" a4 $end
$var wire 1 `" a5 $end
$var wire 1 a" a6 $end
$var wire 1 b" a7 $end
$var wire 1 c" a8 $end
$var wire 1 d" b1 $end
$var wire 1 e" b2 $end
$var wire 1 f" b3 $end
$var wire 1 g" b4 $end
$var wire 1 h" b5 $end
$var wire 1 i" b6 $end
$var wire 1 j" b7 $end
$var wire 1 k" b8 $end
$var reg 1 F" cout $end
$var reg 8 l" operand1 [7:0] $end
$var reg 8 m" operand2 [7:0] $end
$var reg 8 n" result [7:0] $end
$var reg 9 o" temp [8:0] $end
$upscope $end
$scope module adder3 $end
$var wire 1 F" a1 $end
$var wire 1 p" a2 $end
$var wire 1 q" a3 $end
$var wire 1 r" a4 $end
$var wire 1 s" a5 $end
$var wire 1 t" a6 $end
$var wire 1 u" a7 $end
$var wire 1 v" a8 $end
$var wire 1 w" b1 $end
$var wire 1 x" b2 $end
$var wire 1 y" b3 $end
$var wire 1 z" b4 $end
$var wire 1 {" b5 $end
$var wire 1 |" b6 $end
$var wire 1 }" b7 $end
$var wire 1 ~" b8 $end
$var reg 1 E" cout $end
$var reg 8 !# operand1 [7:0] $end
$var reg 8 "# operand2 [7:0] $end
$var reg 8 ## result [7:0] $end
$var reg 9 $# temp [8:0] $end
$upscope $end
$scope module adder4 $end
$var wire 1 E" a1 $end
$var wire 1 %# a2 $end
$var wire 1 &# a3 $end
$var wire 1 '# a4 $end
$var wire 1 (# a5 $end
$var wire 1 )# a6 $end
$var wire 1 *# a7 $end
$var wire 1 +# a8 $end
$var wire 1 ,# b1 $end
$var wire 1 -# b2 $end
$var wire 1 .# b3 $end
$var wire 1 /# b4 $end
$var wire 1 0# b5 $end
$var wire 1 1# b6 $end
$var wire 1 2# b7 $end
$var wire 1 3# b8 $end
$var reg 1 D" cout $end
$var reg 8 4# operand1 [7:0] $end
$var reg 8 5# operand2 [7:0] $end
$var reg 8 6# result [7:0] $end
$var reg 9 7# temp [8:0] $end
$upscope $end
$scope module adder5 $end
$var wire 1 D" a1 $end
$var wire 1 8# a2 $end
$var wire 1 9# a3 $end
$var wire 1 :# a4 $end
$var wire 1 ;# a5 $end
$var wire 1 <# a6 $end
$var wire 1 =# a7 $end
$var wire 1 ># a8 $end
$var wire 1 ?# b1 $end
$var wire 1 @# b2 $end
$var wire 1 A# b3 $end
$var wire 1 B# b4 $end
$var wire 1 C# b5 $end
$var wire 1 D# b6 $end
$var wire 1 E# b7 $end
$var wire 1 F# b8 $end
$var reg 1 C" cout $end
$var reg 8 G# operand1 [7:0] $end
$var reg 8 H# operand2 [7:0] $end
$var reg 8 I# result [7:0] $end
$var reg 9 J# temp [8:0] $end
$upscope $end
$scope module adder6 $end
$var wire 1 C" a1 $end
$var wire 1 K# a2 $end
$var wire 1 L# a3 $end
$var wire 1 M# a4 $end
$var wire 1 N# a5 $end
$var wire 1 O# a6 $end
$var wire 1 P# a7 $end
$var wire 1 Q# a8 $end
$var wire 1 R# b1 $end
$var wire 1 S# b2 $end
$var wire 1 T# b3 $end
$var wire 1 U# b4 $end
$var wire 1 V# b5 $end
$var wire 1 W# b6 $end
$var wire 1 X# b7 $end
$var wire 1 Y# b8 $end
$var reg 1 B" cout $end
$var reg 8 Z# operand1 [7:0] $end
$var reg 8 [# operand2 [7:0] $end
$var reg 8 \# result [7:0] $end
$var reg 9 ]# temp [8:0] $end
$upscope $end
$scope module adder7 $end
$var wire 1 B" a1 $end
$var wire 1 ^# a2 $end
$var wire 1 _# a3 $end
$var wire 1 `# a4 $end
$var wire 1 a# a5 $end
$var wire 1 b# a6 $end
$var wire 1 c# a7 $end
$var wire 1 d# a8 $end
$var wire 1 e# b1 $end
$var wire 1 f# b2 $end
$var wire 1 g# b3 $end
$var wire 1 h# b4 $end
$var wire 1 i# b5 $end
$var wire 1 j# b6 $end
$var wire 1 k# b7 $end
$var wire 1 l# b8 $end
$var reg 1 A" cout $end
$var reg 8 m# operand1 [7:0] $end
$var reg 8 n# operand2 [7:0] $end
$var reg 8 o# result [7:0] $end
$var reg 9 p# temp [8:0] $end
$upscope $end
$upscope $end
$upscope $end
$scope module branch_target $end
$var wire 32 q# in1 [31:0] $end
$var wire 32 r# in2 [31:0] $end
$var reg 32 s# out [31:0] $end
$upscope $end
$scope module controller $end
$var wire 32 t# INSTRUCTION [31:0] $end
$var wire 1 6 RESET $end
$var reg 4 u# ALUOP [3:0] $end
$var reg 8 v# OPCODE [7:0] $end
$var reg 1 &" WRITEENABLE $end
$var reg 1 %" b_notequal $end
$var reg 1 $" branch $end
$var reg 1 "" jump $end
$var reg 1 . mem_read $end
$var reg 1 - mem_write $end
$var reg 1 )" mux_immediate $end
$var reg 1 *" mux_minus $end
$upscope $end
$scope module extend_shift_beq $end
$var wire 8 w# in [7:0] $end
$var reg 32 x# out [31:0] $end
$var reg 32 y# temp [31:0] $end
$upscope $end
$scope module mux1 $end
$var wire 1 *" sel $end
$var wire 8 z# in1 [7:0] $end
$var wire 8 {# in0 [7:0] $end
$var reg 8 |# out [7:0] $end
$upscope $end
$scope module mux2 $end
$var wire 8 }# in0 [7:0] $end
$var wire 8 ~# in1 [7:0] $end
$var wire 1 )" sel $end
$var reg 8 !$ out [7:0] $end
$upscope $end
$scope module my_converter $end
$var wire 8 "$ in_val [7:0] $end
$var reg 8 #$ out_val [7:0] $end
$upscope $end
$scope module my_pc $end
$var wire 1 5 CLK $end
$var wire 1 6 RESET $end
$var wire 1 ! busy $end
$var wire 32 $$ next [31:0] $end
$var reg 32 %$ pc [31:0] $end
$upscope $end
$scope module resistry $end
$var wire 1 5 CLK $end
$var wire 3 &$ INADDRESS [2:0] $end
$var wire 3 '$ OUT1ADDRESS [2:0] $end
$var wire 3 ($ OUT2ADDRESS [2:0] $end
$var wire 1 6 RESET $end
$var wire 1 &" WRITE $end
$var wire 1 ! busy $end
$var wire 8 )$ IN [7:0] $end
$var reg 8 *$ OUT1 [7:0] $end
$var reg 8 +$ OUT2 [7:0] $end
$var integer 32 ,$ i [31:0] $end
$upscope $end
$scope module select_entry $end
$var wire 8 -$ in0 [7:0] $end
$var wire 8 .$ in1 [7:0] $end
$var wire 1 . sel $end
$var reg 8 /$ out [7:0] $end
$upscope $end
$scope module select_instruction_beq $end
$var wire 32 0$ in0 [31:0] $end
$var wire 32 1$ in1 [31:0] $end
$var wire 1 t sel $end
$var reg 32 2$ out [31:0] $end
$upscope $end
$upscope $end
$upscope $end
$enddefinitions $end
#0
$dumpvars
bx 2$
bx 1$
bx 0$
bx /$
bx .$
bx -$
b0 ,$
bx +$
bx *$
bx )$
bx ($
bx '$
bx &$
bx %$
bx $$
bx #$
bx "$
bx !$
bx ~#
bx }#
bx |#
bx {#
bx z#
bx y#
bx x#
bx w#
bx v#
bx u#
bx t#
bx s#
bx r#
bx q#
bx p#
bx o#
bx n#
bx m#
xl#
xk#
xj#
xi#
xh#
xg#
xf#
xe#
xd#
xc#
xb#
xa#
x`#
x_#
x^#
bx ]#
bx \#
bx [#
bx Z#
xY#
xX#
xW#
xV#
xU#
xT#
xS#
xR#
xQ#
xP#
xO#
xN#
xM#
xL#
xK#
bx J#
bx I#
bx H#
bx G#
xF#
xE#
xD#
xC#
xB#
xA#
x@#
x?#
x>#
x=#
x<#
x;#
x:#
x9#
x8#
bx 7#
bx 6#
bx 5#
bx 4#
x3#
x2#
x1#
x0#
x/#
x.#
x-#
x,#
x+#
x*#
x)#
x(#
x'#
x&#
x%#
bx $#
bx ##
bx "#
bx !#
x~"
x}"
x|"
x{"
xz"
xy"
xx"
xw"
xv"
xu"
xt"
xs"
xr"
xq"
xp"
bx o"
bx n"
bx m"
bx l"
xk"
xj"
xi"
xh"
xg"
xf"
xe"
xd"
xc"
xb"
xa"
x`"
x_"
x^"
x]"
bx \"
bx ["
bx Z"
b0xxxxxxx Y"
xX"
xW"
xV"
xU"
xT"
xS"
xR"
xQ"
xP"
xO"
xN"
xM"
xL"
xK"
xJ"
0I"
bx H"
xG"
xF"
xE"
xD"
xC"
xB"
xA"
bx @"
bx ?"
bx >"
bx ="
bx <"
bx ;"
bx :"
bx 9"
bx 8"
bx 7"
bx 6"
bx 5"
bx 4"
bx 3"
bx 2"
bx 1"
bx 0"
bx /"
bx ."
bx -"
bx ,"
bx +"
x*"
x)"
bx ("
bx '"
x&"
x%"
x$"
bx #"
x""
bx !"
bx ~
bx }
bx |
bx {
bx z
bx y
xx
xw
xv
xu
xt
bx s
bx r
xq
bx p
xo
xn
xm
bx l
bx k
bx j
bx i
bx h
bx g
bx f
bx e
bx d
bx c
bx b
bx a
x`
x_
bx ^
bx ]
x\
bx [
bx Z
0Y
bx X
bx W
xV
bx U
xT
bx S
bx R
xQ
bx P
xO
xN
xM
bx L
bx K
bx J
bx I
bx H
bx G
bx F
bx E
bx D
bx C
bx B
bx A
bx @
bx ?
bx >
x=
x<
x;
bx :
bx 9
x8
b0 7
06
05
bx 4
bx 3
bx 2
bx 1
bx 0
x/
x.
x-
bx ,
0+
x*
x)
bx (
bx '
x&
x%
bx $
x#
bx "
x!
$end
#10
b0xxxxxxxxxxxxxxxxxxxxxxxxxxxxxxxxxxxxxxxxxxxxxxxxxxxxxxxxxxxxxxxxxxxxxxxxxxxxxxxxxxxxxxxxxxxxxxxxxxxxxxxxxxxxxxxxxxxxxxxxxxxxxxxx a
#40
15
#60
b0xxxxxxxx "
b0xxxxxxxx G
b0xxxxxxxx S
0#
0%
0)
b0 h
b0 H
0!
b0 I
b0 i
0/
bx0000000 E
bx0000000 J
b111 K
0V
0T
0&
b100000000 W
0*
b0 j
b1000 k
16
#70
b111 b
b111 l
b111 d
b11 c
b1111111100 [
b11111111111111111111111111111100 2
b11111111111111111111111111111100 {
b11111111111111111111111111111100 %$
b0 -"
b0 $$
b0 ."
b0 q#
b0 0$
06
#80
b1 h
0\
0`
b1000 ,$
05
#120
1Y
1+
b111111 ,
b111111 X
b111111 g
1)
b1 h
b1 i
15
#130
1!
b0 ,
b0 X
b0 g
1*
b0 b
b0 l
b0 d
b0 c
b0 [
b0 2
b0 {
b0 %$
#140
b100 ."
b100 q#
b100 0$
#160
05
#200
15
#240
05
#280
15
#320
05
#360
15
#400
05
#440
15
#480
05
#520
15
#560
05
#600
15
bx00011001 (
bx00011001 Z
bx00011001 ]
#640
05
#680
15
#720
05
#760
15
#800
05
#840
15
#880
05
#920
15
#960
05
#1000
15
bx0000000000011001 (
bx0000000000011001 Z
bx0000000000011001 ]
#1040
05
#1080
15
#1120
05
#1160
15
#1200
05
#1240
15
#1280
05
#1320
15
#1360
05
#1400
15
bx000001000000000000011001 (
bx000001000000000000011001 Z
bx000001000000000000011001 ]
#1440
05
#1480
15
#1520
05
#1560
15
#1600
05
#1640
15
#1680
05
#1720
15
#1760
05
#1800
15
bx00000000000001000000000000011001 (
bx00000000000001000000000000011001 Z
bx00000000000001000000000000011001 ]
#1840
05
#1880
15
#1920
05
#1960
15
#2000
05
#2040
15
#2080
05
#2120
15
#2160
05
#2200
15
bx0010001100000000000001000000000000011001 (
bx0010001100000000000001000000000000011001 Z
bx0010001100000000000001000000000000011001 ]
#2240
05
#2280
15
#2320
05
#2360
15
#2400
05
#2440
15
#2480
05
#2520
15
#2560
05
#2600
15
bx000000000010001100000000000001000000000000011001 (
bx000000000010001100000000000001000000000000011001 Z
bx000000000010001100000000000001000000000000011001 ]
#2640
05
#2680
15
#2720
05
#2760
15
#2800
05
#2840
15
#2880
05
#2920
15
#2960
05
#3000
15
bx00000101000000000010001100000000000001000000000000011001 (
bx00000101000000000010001100000000000001000000000000011001 Z
bx00000101000000000010001100000000000001000000000000011001 ]
#3040
05
#3080
15
#3120
05
#3160
15
#3200
05
#3240
15
#3280
05
#3320
15
#3360
05
#3400
15
bx0000000000000101000000000010001100000000000001000000000000011001 (
bx0000000000000101000000000010001100000000000001000000000000011001 Z
bx0000000000000101000000000010001100000000000001000000000000011001 ]
#3440
05
#3480
15
#3520
05
#3560
15
#3600
05
#3640
15
#3680
05
#3720
15
#3760
05
#3800
15
bx000001010000000000000101000000000010001100000000000001000000000000011001 (
bx000001010000000000000101000000000010001100000000000001000000000000011001 Z
bx000001010000000000000101000000000010001100000000000001000000000000011001 ]
#3840
05
#3880
15
#3920
05
#3960
15
#4000
05
#4040
15
#4080
05
#4120
15
#4160
05
#4200
15
bx00000100000001010000000000000101000000000010001100000000000001000000000000011001 (
bx00000100000001010000000000000101000000000010001100000000000001000000000000011001 Z
bx00000100000001010000000000000101000000000010001100000000000001000000000000011001 ]
#4240
05
#4280
15
#4320
05
#4360
15
#4400
05
#4440
15
#4480
05
#4520
15
#4560
05
#4600
15
bx0000011000000100000001010000000000000101000000000010001100000000000001000000000000011001 (
bx0000011000000100000001010000000000000101000000000010001100000000000001000000000000011001 Z
bx0000011000000100000001010000000000000101000000000010001100000000000001000000000000011001 ]
#4640
05
#4680
15
#4720
05
#4760
15
#4800
05
#4840
15
#4880
05
#4920
15
#4960
05
#5000
15
bx000000100000011000000100000001010000000000000101000000000010001100000000000001000000000000011001 (
bx000000100000011000000100000001010000000000000101000000000010001100000000000001000000000000011001 Z
bx000000100000011000000100000001010000000000000101000000000010001100000000000001000000000000011001 ]
#5040
05
#5080
15
#5120
05
#5160
15
#5200
05
#5240
15
#5280
05
#5320
15
#5360
05
#5400
15
bx00000100000000100000011000000100000001010000000000000101000000000010001100000000000001000000000000011001 (
bx00000100000000100000011000000100000001010000000000000101000000000010001100000000000001000000000000011001 Z
bx00000100000000100000011000000100000001010000000000000101000000000010001100000000000001000000000000011001 ]
#5440
05
#5480
15
#5520
05
#5560
15
#5600
05
#5640
15
#5680
05
#5720
15
#5760
05
#5800
15
bx0000010100000100000000100000011000000100000001010000000000000101000000000010001100000000000001000000000000011001 (
bx0000010100000100000000100000011000000100000001010000000000000101000000000010001100000000000001000000000000011001 Z
bx0000010100000100000000100000011000000100000001010000000000000101000000000010001100000000000001000000000000011001 ]
#5840
05
#5880
15
#5920
05
#5960
15
#6000
05
#6040
15
#6080
05
#6120
15
#6160
05
#6200
15
bx000001100000010100000100000000100000011000000100000001010000000000000101000000000010001100000000000001000000000000011001 (
bx000001100000010100000100000000100000011000000100000001010000000000000101000000000010001100000000000001000000000000011001 Z
bx000001100000010100000100000000100000011000000100000001010000000000000101000000000010001100000000000001000000000000011001 ]
#6240
05
#6280
15
#6320
05
#6360
15
#6400
05
#6440
15
#6480
05
#6520
15
#6560
05
#6600
bx ,
bx X
bx g
0)
b10 i
b0 h
15
0Y
0+
b11000001100000010100000100000000100000011000000100000001010000000000000101000000000010001100000000000001000000000000011001 (
b11000001100000010100000100000000100000011000000100000001010000000000000101000000000010001100000000000001000000000000011001 Z
b11000001100000010100000100000000100000011000000100000001010000000000000101000000000010001100000000000001000000000000011001 ]
#6610
b1 j
#6620
1q
1m
1n
1o
x\
1`
b0 ^
b0 p
b11000001100000010100000100000000100000011000000100000001010000000000000101000000000010001100000000000001000000000000011001 a
#6629
1\
1_
#6630
b10000 #"
b10000 r#
b10000 x#
b100 y#
b100 w#
b100 &$
b0 '$
b1 ($
b11001 ~#
0-
0.
b0 v#
b1000000000000011001 3
b1000000000000011001 f
b1000000000000011001 r
b1000000000000011001 t#
b1000000000000011001 e
#6640
b100 -"
b100 $$
b0 n#
b0 [#
b0 H#
b0 m"
b0 Z"
b100 |
b100 2$
0l#
0k#
0j#
0i#
0h#
0g#
0f#
0e#
0Y#
0X#
0W#
0V#
0U#
0T#
0S#
0R#
0F#
0E#
0D#
0C#
0B#
0A#
0@#
0?#
0k"
0j"
0i"
0h"
0g"
0f"
0e"
0d"
0X"
0W"
0V"
0U"
0T"
0S"
0R"
0Q"
0t
0u
0v
b11001 }
b11001 5"
b11001 ?"
b11001 !$
0%"
0""
0$"
1&"
1)"
b0 ,"
b0 4"
b0 u#
05
#6650
0A"
b0 8"
b0 o#
b0 p#
b0 m#
0d#
0c#
0b#
0a#
0`#
0_#
0^#
0B"
b0 9"
b0 \#
b0 ]#
b0 Z#
0Q#
0P#
0O#
0N#
0M#
0L#
0K#
0C"
b0 :"
b0 I#
b0 J#
b0 G#
0>#
0=#
0<#
0;#
0:#
09#
08#
0D"
b0 ;"
b0 6#
b0 7#
b0 4#
0+#
0*#
0)#
0(#
0'#
0&#
0%#
1w
0E"
b0 <"
b0 ##
b0 $#
b0 !#
0v"
0u"
0t"
0s"
0r"
0q"
0p"
0x
0F"
b0 ="
b0 n"
b0 o"
b0 l"
0c"
0b"
0a"
0`"
0_"
0^"
0]"
b0 5#
b0 "#
0G"
b0 >"
b0 ["
b0 \"
b0 Y"
b1 ?
b110 @
b0 >
b0 L
b11001 z
b11001 )$
b11001 /$
03#
02#
01#
00#
0/#
0.#
0-#
0,#
0~"
0}"
0|"
0{"
0z"
0y"
0x"
0w"
0P"
0O"
0N"
0M"
0L"
0K"
0J"
b11001 4
b11001 D
b11001 +"
b11001 7"
b11001 -$
b0 2"
b0 H"
bx11xx1 1"
b0xx00x /"
b11001 0"
b10100 y
b10100 s#
b10100 1$
b0 '"
b0 {#
b0 "$
b0 +$
b0 0
b0 B
b0 ("
b0 6"
b0 @"
b0 *$
#6660
1Q
1M
1N
1O
08
0<
0=
b0 :
b0 P
b0 9
b0 !"
b0 z#
b0 #$
b11001 1"
b0 /"
#6669
1;
#6670
b0 1
b0 C
b0 s
b0 .$
b11001 3"
#6680
0!
b0 i
0*
15
#6690
1!
1*
b1 c
b100 [
b100 2
b100 {
b100 %$
#6700
b10100 #"
b10100 r#
b10100 x#
b101 y#
b100011 }
b100011 5"
b100011 ?"
b100011 !$
b101 w#
b101 &$
b11 ($
b100011 ~#
b1000 -"
b1000 $$
b1010000000000100011 3
b1010000000000100011 f
b1010000000000100011 r
b1010000000000100011 t#
b1000 |
b1000 2$
b1010000000000100011 e
b1000 ."
b1000 q#
b1000 0$
#6710
0Q
0M
b11 ?
b0 @
b1 >
b1 L
b100011 z
b100011 )$
b100011 /$
b100011 4
b100011 D
b100011 +"
b100011 7"
b100011 -$
b100011 1"
b100011 0"
#6719
0;
#6720
b100011 3"
b11100 y
b11100 s#
b11100 1$
05
#6760
0!
0*
15
#6770
1!
1*
b10 c
b1000 [
b1000 2
b1000 {
b1000 %$
#6780
b11000 #"
b11000 r#
b11000 x#
b110 y#
b101 }
b101 5"
b101 ?"
b101 !$
b110 w#
b110 &$
b100 '$
b101 ($
b101 ~#
b10 v#
b1100 -"
b1100 $$
b10000001100000010000000101 3
b10000001100000010000000101 f
b10000001100000010000000101 r
b10000001100000010000000101 t#
b1100 |
b1100 2$
b10000001100000010000000101 e
b1100 ."
b1100 q#
b1100 0$
#6790
b0 }
b0 5"
b0 ?"
b0 !$
b0 ~
b0 |#
b0 }#
b101 1"
b101 0"
0)"
0*"
b1 ,"
b1 4"
b1 u#
#6800
1Q#
b10 G#
1=#
b100 ;"
b100 6#
b100 7#
b100 4#
1)#
b110 8"
b110 o#
b110 p#
b110 m#
b1001 <"
b1001 ##
b1001 $#
b1001 !#
1c#
1b#
1v"
1s"
b1101 9"
b1101 \#
b1101 ]#
b1101 Z#
b10010 ="
b10010 n"
b10010 o"
b10010 l"
1O#
1N#
1b"
1_"
b11011 :"
b11011 I#
b11011 J#
b11001 H#
b100101 >"
b100101 ["
b100101 \"
b11001 Z"
b1100 Y"
1F#
1C#
1B#
1X"
1U"
1T"
1N"
1M"
b1101011 2"
b1101011 H"
b100011 }
b100011 5"
b100011 ?"
b100011 !$
b100011 ~
b100011 |#
b100011 }#
b0 1"
b0 0"
b100011 '"
b100011 {#
b100011 "$
b100011 +$
b11001 0
b11001 B
b11001 ("
b11001 6"
b11001 @"
b11001 *$
b100100 y
b100100 s#
b100100 1$
05
#6810
b1 /"
b100011 0"
b11011101 !"
b11011101 z#
b11011101 #$
b111011 1"
#6820
b0 ?
b111 @
b111100 z
b111100 )$
b111100 /$
b111100 4
b111100 D
b111100 +"
b111100 7"
b111100 -$
b111100 3"
#6830
xQ
xM
xN
xO
x<
x=
bx :
bx P
bx 9
#6839
x8
x;
#6840
0!
0*
bx 1
bx C
bx s
bx .$
15
#6850
1!
1*
b11 c
b1100 [
b1100 2
b1100 {
b1100 %$
#6860
b101 '$
b100 ($
b100 ~#
b11 v#
b10000 -"
b10000 $$
b11000001100000010100000100 3
b11000001100000010100000100 f
b11000001100000010100000100 r
b11000001100000010100000100 t#
b10000 |
b10000 2$
b11000001100000010100000100 e
b10000 ."
b10000 q#
b10000 0$
#6870
1Q#
1c#
0a#
1P#
0>#
1=#
1:#
0*#
1u"
b10010 m#
b1011 Z#
b10110 G#
b10100 4#
b1111 !#
b10010101 2"
b10010101 H"
b110 l"
0d#
0b#
1`#
0O#
1N#
1<#
0;#
0+#
1)#
1'#
1t"
1s"
0r"
1a"
0_"
b10011 8"
b10011 o#
b10011 p#
b1 n#
b100100 9"
b100100 \#
b100100 ]#
b11001 [#
b10110 :"
b10110 I#
b10110 J#
b0 H#
b101101 ;"
b101101 6#
b101101 7#
b11001 5#
b101000 <"
b101000 ##
b101000 $#
b11001 "#
b11111 ="
b11111 n"
b11111 o"
b11001 m"
b1100 >"
b1100 ["
b1100 \"
b0 Z"
1l#
1Y#
1V#
1U#
0F#
0C#
0B#
13#
10#
1/#
1~"
1{"
1z"
1k"
1h"
1g"
0X"
0U"
0T"
b11011101 }
b11011101 5"
b11011101 ?"
b11011101 !$
b11011101 ~
b11011101 |#
b11011101 }#
1*"
#6880
0c#
1a#
b1111 Z#
1P#
1O#
0*#
b11001 m#
b11111 :"
b11111 I#
b11111 J#
b11111 G#
b11100 4#
b10101 !#
b110111 2"
b110111 H"
b1000 l"
1d#
0b#
1>#
1<#
1;#
0+#
1)#
1(#
1v"
0u"
0s"
1r"
0b"
0a"
1`"
b111100 8"
b111100 o#
b111100 p#
b100011 n#
b110010 9"
b110010 \#
b110010 ]#
b100011 [#
b111111 ;"
b111111 6#
b111111 7#
b100011 5#
b111000 <"
b111000 ##
b111000 $#
b100011 "#
b101011 ="
b101011 n"
b101011 o"
b100011 m"
b10001 >"
b10001 ["
b10001 \"
b10001 Y"
1k#
1g#
1X#
0V#
0U#
1T#
12#
00#
0/#
1.#
1}"
0{"
0z"
1y"
1j"
0h"
0g"
1f"
1P"
0N"
0M"
1L"
b11011101 1"
b11001 /"
b11011101 0"
b11001 '"
b11001 {#
b11001 "$
b11001 +$
b100011 0
b100011 B
b100011 ("
b100011 6"
b100011 @"
b100011 *$
b101000 y
b101000 s#
b101000 1$
05
